module ferromagnetic

go 1.18

require (
	github.com/hajimehoshi/ebiten/v2 v2.3.4
	github.com/ojrac/opensimplex-go v1.0.2
	github.com/sedyh/mizu v1.0.4
	golang.org/x/image v0.0.0-20220321031419-a8550c1d254a
)

require (
	github.com/go-gl/glfw/v3.3/glfw v0.0.0-20220320163800-277f93cfa958 // indirect
	github.com/gofrs/flock v0.8.1 // indirect
	github.com/hajimehoshi/go-mp3 v0.3.3 // indirect
	github.com/hajimehoshi/oto/v2 v2.1.0 // indirect
	github.com/jezek/xgb v1.0.0 // indirect
	golang.org/x/exp/shiny v0.0.0-20220613132600-b0d781184e0d // indirect
	golang.org/x/mobile v0.0.0-20220518205345-8578da9835fd // indirect
	golang.org/x/sync v0.0.0-20210220032951-036812b2e83c // indirect
	golang.org/x/sys v0.0.0-20220408201424-a24fb2fb8a0f // indirect
)
